cccsbg	CCC Salzburg	https://finga.github.io/rc3-cccsbg	https://github.com/finga/rc3-cccsbg	5	10	-5
devlol	/dev/lol	https://devlol-systems.pages.devlol.org/vspace-workadv	https://git.devlol.org/devlol-systems/vspace-workadv	3	13	-3
grandgarage	GRAND GARAGE	https://grand-garage.github.io/gg-workadventure	https://github.com/Grand-Garage/gg-workadventure	3	14	5
it-syndikat	IT-Syndikat	https://git.it-syndikat.org/IT-Syndikat/rc3-its-assembly-2021/raw/branch/master/a12dventure	https://git.it-syndikat.org/IT-Syndikat/rc3-its-assembly-2021/src/branch/master	7	5	-4
Metalab	Metalab	https://metalab.github.io/maptest	https://github.com/Metalab/maptest	3	19	-4
realraum	realraum	https://realraum.github.io/workadventur3space	https://github.com/realraum/workadventur3space	8	16	-4
steyr-werke	Steyr-Werke	https://steyr-werke.gitlab.io/workadventure-stw	https://gitlab.com/steyr-werke/workadventure-stw	4	13	-5
